{
  "version": "3.0.0",
  "vulnerabilities": [
    {
      "id": "a4e9c2fe57840e9b7bc36cc4729ec63fa3c8bdce2abd43629ea43ba39feda8fc",
      "category": "dast",
      "message": "subprocess call with shell=True identified, security issue.",
      "cve": "notes/routes.py:b3bccd95a427989633fb9d3b6a3fb2c381839983497e6b5635d874bd00ad9ef7:B602",
      "severity": "High",
      "confidence": "High",
      "scanner": {
        "id": "myscan2",
        "name": "MyScanner2"
      },
      "location": {
        "file": "notes/routes.py",
        "start_line": 20,
        "end_line": 20
      },
      "identifiers": [
        {
          "type": "bandit_test_id",
          "name": "Reflected_XSS_all_clients",
          "value": "reflected_xss_all_clients",
          "url": "https://www.myscan.com/blog/xss-the-definitive-guide-to-cross-site-scripting-prevention/"
        }
      ]
    }
  ],
  "remediations": [],
  "scan": {
    "scanner": {
      "id": "myscan",
      "name": "MyScanner2",
      "url": "https://myscan.com",
      "vendor": {
        "name": "MyScanner2indropdown"
      },
      "version": "5.0"
    },
    "type": "dast",
    "start_time": "2021-06-25T17:38:29",
    "end_time": "2021-06-25T17:38:29",
    "status": "success"
  }
}
